Sender: LSF System <lsfadmin@node7-7>
Subject: Job 29831624: <makeout.8> in cluster <minerva> Done

Job <makeout.8> was submitted from host <minerva2> by user <borrej02> in cluster <minerva>.
Job was executed on host(s) <node7-7>, in queue <expressalloc>, as user <borrej02> in cluster <minerva>.
</hpc/users/borrej02> was used as the home directory.
</hpc/users/borrej02/scicomp/homework/bash_final/dir2> was used as the working directory.
Started at Wed Oct 21 01:04:57 2015
Results reported on Wed Oct 21 01:05:10 2015

Your job looked like:

------------------------------------------------------------
# LSBATCH: User input
cat file8
------------------------------------------------------------

Successfully completed.

Resource usage summary:

    CPU time :                                   0.43 sec.
    Max Memory :                                 23 MB
    Average Memory :                             5.67 MB
    Total Requested Memory :                     2000.00 MB
    Delta Memory :                               1977.00 MB
    Max Processes :                              4
    Max Threads :                                4

The output (if any) follows:

This is file8
